---
http_interactions:
- request:
    method: get
    uri: https://reqres.in/api/users?page=1
    body:
      encoding: US-ASCII
      string: ''
    headers:
      Accept-Encoding:
      - gzip;q=1.0,deflate;q=0.6,identity;q=0.3
      Accept:
      - "*/*"
      User-Agent:
      - Ruby
  response:
    status:
      code: 200
      message: OK
    headers:
      Date:
      - Sun, 17 Mar 2024 22:22:14 GMT
      Content-Type:
      - application/json; charset=utf-8
      Transfer-Encoding:
      - chunked
      Connection:
      - keep-alive
      Report-To:
      - '{"group":"heroku-nel","max_age":3600,"endpoints":[{"url":"https://nel.heroku.com/reports?ts=1710692834&sid=c4c9725f-1ab0-44d8-820f-430df2718e11&s=lQxgTynhV8nUfDOQRlZAmirIkQ5TLzwxavFT1lLeY%2BY%3D"}]}'
      Reporting-Endpoints:
      - heroku-nel=https://nel.heroku.com/reports?ts=1710692834&sid=c4c9725f-1ab0-44d8-820f-430df2718e11&s=lQxgTynhV8nUfDOQRlZAmirIkQ5TLzwxavFT1lLeY%2BY%3D
      Nel:
      - '{"report_to":"heroku-nel","max_age":3600,"success_fraction":0.005,"failure_fraction":0.05,"response_headers":["Via"]}'
      X-Powered-By:
      - Express
      Access-Control-Allow-Origin:
      - "*"
      Etag:
      - W/"3e4-2RLXvr5wTg9YQ6aH95CkYoFNuO8"
      Via:
      - 1.1 vegur
      Cache-Control:
      - max-age=14400
      Cf-Cache-Status:
      - HIT
      Age:
      - '5539'
      Vary:
      - Accept-Encoding
      Server:
      - cloudflare
      Cf-Ray:
      - 8660616ebc36a55f-GRU
    body:
      encoding: ASCII-8BIT
      string: '{"page":1,"per_page":6,"total":12,"total_pages":2,"data":[{"id":1,"email":"george.bluth@reqres.in","first_name":"George","last_name":"Bluth","avatar":"https://reqres.in/img/faces/1-image.jpg"},{"id":2,"email":"janet.weaver@reqres.in","first_name":"Janet","last_name":"Weaver","avatar":"https://reqres.in/img/faces/2-image.jpg"},{"id":3,"email":"emma.wong@reqres.in","first_name":"Emma","last_name":"Wong","avatar":"https://reqres.in/img/faces/3-image.jpg"},{"id":4,"email":"eve.holt@reqres.in","first_name":"Eve","last_name":"Holt","avatar":"https://reqres.in/img/faces/4-image.jpg"},{"id":5,"email":"charles.morris@reqres.in","first_name":"Charles","last_name":"Morris","avatar":"https://reqres.in/img/faces/5-image.jpg"},{"id":6,"email":"tracey.ramos@reqres.in","first_name":"Tracey","last_name":"Ramos","avatar":"https://reqres.in/img/faces/6-image.jpg"}],"support":{"url":"https://reqres.in/#support-heading","text":"To
        keep ReqRes free, contributions towards server costs are appreciated!"}}'
  recorded_at: Sun, 17 Mar 2024 22:22:14 GMT
- request:
    method: get
    uri: https://reqres.in/api/users?page=1
    body:
      encoding: US-ASCII
      string: ''
    headers:
      Accept-Encoding:
      - gzip;q=1.0,deflate;q=0.6,identity;q=0.3
      Accept:
      - "*/*"
      User-Agent:
      - Ruby
  response:
    status:
      code: 200
      message: OK
    headers:
      Date:
      - Sun, 17 Mar 2024 22:22:15 GMT
      Content-Type:
      - application/json; charset=utf-8
      Transfer-Encoding:
      - chunked
      Connection:
      - keep-alive
      Report-To:
      - '{"group":"heroku-nel","max_age":3600,"endpoints":[{"url":"https://nel.heroku.com/reports?ts=1710692834&sid=c4c9725f-1ab0-44d8-820f-430df2718e11&s=lQxgTynhV8nUfDOQRlZAmirIkQ5TLzwxavFT1lLeY%2BY%3D"}]}'
      Reporting-Endpoints:
      - heroku-nel=https://nel.heroku.com/reports?ts=1710692834&sid=c4c9725f-1ab0-44d8-820f-430df2718e11&s=lQxgTynhV8nUfDOQRlZAmirIkQ5TLzwxavFT1lLeY%2BY%3D
      Nel:
      - '{"report_to":"heroku-nel","max_age":3600,"success_fraction":0.005,"failure_fraction":0.05,"response_headers":["Via"]}'
      X-Powered-By:
      - Express
      Access-Control-Allow-Origin:
      - "*"
      Etag:
      - W/"3e4-2RLXvr5wTg9YQ6aH95CkYoFNuO8"
      Via:
      - 1.1 vegur
      Cache-Control:
      - max-age=14400
      Cf-Cache-Status:
      - HIT
      Age:
      - '5540'
      Vary:
      - Accept-Encoding
      Server:
      - cloudflare
      Cf-Ray:
      - 8660616fbcbf01d3-GRU
    body:
      encoding: ASCII-8BIT
      string: '{"page":1,"per_page":6,"total":12,"total_pages":2,"data":[{"id":1,"email":"george.bluth@reqres.in","first_name":"George","last_name":"Bluth","avatar":"https://reqres.in/img/faces/1-image.jpg"},{"id":2,"email":"janet.weaver@reqres.in","first_name":"Janet","last_name":"Weaver","avatar":"https://reqres.in/img/faces/2-image.jpg"},{"id":3,"email":"emma.wong@reqres.in","first_name":"Emma","last_name":"Wong","avatar":"https://reqres.in/img/faces/3-image.jpg"},{"id":4,"email":"eve.holt@reqres.in","first_name":"Eve","last_name":"Holt","avatar":"https://reqres.in/img/faces/4-image.jpg"},{"id":5,"email":"charles.morris@reqres.in","first_name":"Charles","last_name":"Morris","avatar":"https://reqres.in/img/faces/5-image.jpg"},{"id":6,"email":"tracey.ramos@reqres.in","first_name":"Tracey","last_name":"Ramos","avatar":"https://reqres.in/img/faces/6-image.jpg"}],"support":{"url":"https://reqres.in/#support-heading","text":"To
        keep ReqRes free, contributions towards server costs are appreciated!"}}'
  recorded_at: Sun, 17 Mar 2024 22:22:14 GMT
- request:
    method: get
    uri: https://reqres.in/api/users?page=2
    body:
      encoding: US-ASCII
      string: ''
    headers:
      Accept-Encoding:
      - gzip;q=1.0,deflate;q=0.6,identity;q=0.3
      Accept:
      - "*/*"
      User-Agent:
      - Ruby
  response:
    status:
      code: 200
      message: OK
    headers:
      Date:
      - Sun, 17 Mar 2024 22:22:16 GMT
      Content-Type:
      - application/json; charset=utf-8
      Transfer-Encoding:
      - chunked
      Connection:
      - keep-alive
      Report-To:
      - '{"group":"heroku-nel","max_age":3600,"endpoints":[{"url":"https://nel.heroku.com/reports?ts=1708471434&sid=c4c9725f-1ab0-44d8-820f-430df2718e11&s=Aq0sGvi1rJMpOSAaSXR7y1VB%2BOiaE1Y9ej9lcXXE%2FIw%3D"}]}'
      Reporting-Endpoints:
      - heroku-nel=https://nel.heroku.com/reports?ts=1708471434&sid=c4c9725f-1ab0-44d8-820f-430df2718e11&s=Aq0sGvi1rJMpOSAaSXR7y1VB%2BOiaE1Y9ej9lcXXE%2FIw%3D
      Nel:
      - '{"report_to":"heroku-nel","max_age":3600,"success_fraction":0.005,"failure_fraction":0.05,"response_headers":["Via"]}'
      X-Powered-By:
      - Express
      Access-Control-Allow-Origin:
      - "*"
      Etag:
      - W/"406-ut0vzoCuidvyMf8arZpMpJ6ZRDw"
      Via:
      - 1.1 vegur
      Cache-Control:
      - max-age=14400
      Cf-Cache-Status:
      - HIT
      Age:
      - '1582'
      Vary:
      - Accept-Encoding
      Server:
      - cloudflare
      Cf-Ray:
      - 866061781cd801b3-GRU
    body:
      encoding: ASCII-8BIT
      string: '{"page":2,"per_page":6,"total":12,"total_pages":2,"data":[{"id":7,"email":"michael.lawson@reqres.in","first_name":"Michael","last_name":"Lawson","avatar":"https://reqres.in/img/faces/7-image.jpg"},{"id":8,"email":"lindsay.ferguson@reqres.in","first_name":"Lindsay","last_name":"Ferguson","avatar":"https://reqres.in/img/faces/8-image.jpg"},{"id":9,"email":"tobias.funke@reqres.in","first_name":"Tobias","last_name":"Funke","avatar":"https://reqres.in/img/faces/9-image.jpg"},{"id":10,"email":"byron.fields@reqres.in","first_name":"Byron","last_name":"Fields","avatar":"https://reqres.in/img/faces/10-image.jpg"},{"id":11,"email":"george.edwards@reqres.in","first_name":"George","last_name":"Edwards","avatar":"https://reqres.in/img/faces/11-image.jpg"},{"id":12,"email":"rachel.howell@reqres.in","first_name":"Rachel","last_name":"Howell","avatar":"https://reqres.in/img/faces/12-image.jpg"}],"support":{"url":"https://reqres.in/#support-heading","text":"To
        keep ReqRes free, contributions towards server costs are appreciated!"}}'
  recorded_at: Sun, 17 Mar 2024 22:22:16 GMT
- request:
    method: get
    uri: https://reqres.in/api/users?page=2
    body:
      encoding: US-ASCII
      string: ''
    headers:
      Accept-Encoding:
      - gzip;q=1.0,deflate;q=0.6,identity;q=0.3
      Accept:
      - "*/*"
      User-Agent:
      - Ruby
  response:
    status:
      code: 200
      message: OK
    headers:
      Date:
      - Sun, 17 Mar 2024 22:22:16 GMT
      Content-Type:
      - application/json; charset=utf-8
      Transfer-Encoding:
      - chunked
      Connection:
      - keep-alive
      Report-To:
      - '{"group":"heroku-nel","max_age":3600,"endpoints":[{"url":"https://nel.heroku.com/reports?ts=1708471434&sid=c4c9725f-1ab0-44d8-820f-430df2718e11&s=Aq0sGvi1rJMpOSAaSXR7y1VB%2BOiaE1Y9ej9lcXXE%2FIw%3D"}]}'
      Reporting-Endpoints:
      - heroku-nel=https://nel.heroku.com/reports?ts=1708471434&sid=c4c9725f-1ab0-44d8-820f-430df2718e11&s=Aq0sGvi1rJMpOSAaSXR7y1VB%2BOiaE1Y9ej9lcXXE%2FIw%3D
      Nel:
      - '{"report_to":"heroku-nel","max_age":3600,"success_fraction":0.005,"failure_fraction":0.05,"response_headers":["Via"]}'
      X-Powered-By:
      - Express
      Access-Control-Allow-Origin:
      - "*"
      Etag:
      - W/"406-ut0vzoCuidvyMf8arZpMpJ6ZRDw"
      Via:
      - 1.1 vegur
      Cache-Control:
      - max-age=14400
      Cf-Cache-Status:
      - HIT
      Age:
      - '1582'
      Vary:
      - Accept-Encoding
      Server:
      - cloudflare
      Cf-Ray:
      - 86606178df31011f-GRU
    body:
      encoding: ASCII-8BIT
      string: '{"page":2,"per_page":6,"total":12,"total_pages":2,"data":[{"id":7,"email":"michael.lawson@reqres.in","first_name":"Michael","last_name":"Lawson","avatar":"https://reqres.in/img/faces/7-image.jpg"},{"id":8,"email":"lindsay.ferguson@reqres.in","first_name":"Lindsay","last_name":"Ferguson","avatar":"https://reqres.in/img/faces/8-image.jpg"},{"id":9,"email":"tobias.funke@reqres.in","first_name":"Tobias","last_name":"Funke","avatar":"https://reqres.in/img/faces/9-image.jpg"},{"id":10,"email":"byron.fields@reqres.in","first_name":"Byron","last_name":"Fields","avatar":"https://reqres.in/img/faces/10-image.jpg"},{"id":11,"email":"george.edwards@reqres.in","first_name":"George","last_name":"Edwards","avatar":"https://reqres.in/img/faces/11-image.jpg"},{"id":12,"email":"rachel.howell@reqres.in","first_name":"Rachel","last_name":"Howell","avatar":"https://reqres.in/img/faces/12-image.jpg"}],"support":{"url":"https://reqres.in/#support-heading","text":"To
        keep ReqRes free, contributions towards server costs are appreciated!"}}'
  recorded_at: Sun, 17 Mar 2024 22:22:16 GMT
recorded_with: VCR 6.2.0
