---
http_interactions:
- request:
    method: get
    uri: https://reqres.in/api/users?page=999&per_page=6
    body:
      encoding: US-ASCII
      string: ''
    headers:
      Accept-Encoding:
      - gzip;q=1.0,deflate;q=0.6,identity;q=0.3
      Accept:
      - "*/*"
      User-Agent:
      - Ruby
  response:
    status:
      code: 200
      message: OK
    headers:
      Date:
      - Sun, 17 Mar 2024 21:49:52 GMT
      Content-Type:
      - application/json; charset=utf-8
      Transfer-Encoding:
      - chunked
      Connection:
      - keep-alive
      Report-To:
      - '{"group":"heroku-nel","max_age":3600,"endpoints":[{"url":"https://nel.heroku.com/reports?ts=1710625128&sid=c4c9725f-1ab0-44d8-820f-430df2718e11&s=wXOG%2F8DijkIhx%2FyGg3vn1toxifHYC1S%2FPcEGCjRv4s4%3D"}]}'
      Reporting-Endpoints:
      - heroku-nel=https://nel.heroku.com/reports?ts=1710625128&sid=c4c9725f-1ab0-44d8-820f-430df2718e11&s=wXOG%2F8DijkIhx%2FyGg3vn1toxifHYC1S%2FPcEGCjRv4s4%3D
      Nel:
      - '{"report_to":"heroku-nel","max_age":3600,"success_fraction":0.005,"failure_fraction":0.05,"response_headers":["Via"]}'
      X-Powered-By:
      - Express
      Access-Control-Allow-Origin:
      - "*"
      Etag:
      - W/"c7-cga74Ts/eAcgbsa9NcrUEFyzPc0"
      Via:
      - 1.1 vegur
      Cache-Control:
      - max-age=14400
      Cf-Cache-Status:
      - REVALIDATED
      Vary:
      - Accept-Encoding
      Server:
      - cloudflare
      Cf-Ray:
      - 866031fdfb8ca4bd-GRU
    body:
      encoding: ASCII-8BIT
      string: '{"page":999,"per_page":6,"total":12,"total_pages":2,"data":[],"support":{"url":"https://reqres.in/#support-heading","text":"To
        keep ReqRes free, contributions towards server costs are appreciated!"}}'
  recorded_at: Sun, 17 Mar 2024 21:49:52 GMT
recorded_with: VCR 6.2.0
