---
http_interactions:
- request:
    method: get
    uri: https://reqres.in/api/users?page=1
    body:
      encoding: US-ASCII
      string: ''
    headers:
      Accept-Encoding:
      - gzip;q=1.0,deflate;q=0.6,identity;q=0.3
      Accept:
      - "*/*"
      User-Agent:
      - Ruby
  response:
    status:
      code: 200
      message: OK
    headers:
      Date:
      - Sun, 17 Mar 2024 22:25:51 GMT
      Content-Type:
      - application/json; charset=utf-8
      Transfer-Encoding:
      - chunked
      Connection:
      - keep-alive
      Report-To:
      - '{"group":"heroku-nel","max_age":3600,"endpoints":[{"url":"https://nel.heroku.com/reports?ts=1710692834&sid=c4c9725f-1ab0-44d8-820f-430df2718e11&s=lQxgTynhV8nUfDOQRlZAmirIkQ5TLzwxavFT1lLeY%2BY%3D"}]}'
      Reporting-Endpoints:
      - heroku-nel=https://nel.heroku.com/reports?ts=1710692834&sid=c4c9725f-1ab0-44d8-820f-430df2718e11&s=lQxgTynhV8nUfDOQRlZAmirIkQ5TLzwxavFT1lLeY%2BY%3D
      Nel:
      - '{"report_to":"heroku-nel","max_age":3600,"success_fraction":0.005,"failure_fraction":0.05,"response_headers":["Via"]}'
      X-Powered-By:
      - Express
      Access-Control-Allow-Origin:
      - "*"
      Etag:
      - W/"3e4-2RLXvr5wTg9YQ6aH95CkYoFNuO8"
      Via:
      - 1.1 vegur
      Cache-Control:
      - max-age=14400
      Cf-Cache-Status:
      - HIT
      Age:
      - '5756'
      Vary:
      - Accept-Encoding
      Server:
      - cloudflare
      Cf-Ray:
      - 866066bb99b002f7-GRU
    body:
      encoding: ASCII-8BIT
      string: '{"page":1,"per_page":6,"total":12,"total_pages":2,"data":[{"id":1,"email":"george.bluth@reqres.in","first_name":"George","last_name":"Bluth","avatar":"https://reqres.in/img/faces/1-image.jpg"},{"id":2,"email":"janet.weaver@reqres.in","first_name":"Janet","last_name":"Weaver","avatar":"https://reqres.in/img/faces/2-image.jpg"},{"id":3,"email":"emma.wong@reqres.in","first_name":"Emma","last_name":"Wong","avatar":"https://reqres.in/img/faces/3-image.jpg"},{"id":4,"email":"eve.holt@reqres.in","first_name":"Eve","last_name":"Holt","avatar":"https://reqres.in/img/faces/4-image.jpg"},{"id":5,"email":"charles.morris@reqres.in","first_name":"Charles","last_name":"Morris","avatar":"https://reqres.in/img/faces/5-image.jpg"},{"id":6,"email":"tracey.ramos@reqres.in","first_name":"Tracey","last_name":"Ramos","avatar":"https://reqres.in/img/faces/6-image.jpg"}],"support":{"url":"https://reqres.in/#support-heading","text":"To
        keep ReqRes free, contributions towards server costs are appreciated!"}}'
  recorded_at: Sun, 17 Mar 2024 22:25:51 GMT
- request:
    method: get
    uri: https://reqres.in/api/users?page=1
    body:
      encoding: US-ASCII
      string: ''
    headers:
      Accept-Encoding:
      - gzip;q=1.0,deflate;q=0.6,identity;q=0.3
      Accept:
      - "*/*"
      User-Agent:
      - Ruby
  response:
    status:
      code: 200
      message: OK
    headers:
      Date:
      - Sun, 17 Mar 2024 22:25:52 GMT
      Content-Type:
      - application/json; charset=utf-8
      Transfer-Encoding:
      - chunked
      Connection:
      - keep-alive
      Report-To:
      - '{"group":"heroku-nel","max_age":3600,"endpoints":[{"url":"https://nel.heroku.com/reports?ts=1710692834&sid=c4c9725f-1ab0-44d8-820f-430df2718e11&s=lQxgTynhV8nUfDOQRlZAmirIkQ5TLzwxavFT1lLeY%2BY%3D"}]}'
      Reporting-Endpoints:
      - heroku-nel=https://nel.heroku.com/reports?ts=1710692834&sid=c4c9725f-1ab0-44d8-820f-430df2718e11&s=lQxgTynhV8nUfDOQRlZAmirIkQ5TLzwxavFT1lLeY%2BY%3D
      Nel:
      - '{"report_to":"heroku-nel","max_age":3600,"success_fraction":0.005,"failure_fraction":0.05,"response_headers":["Via"]}'
      X-Powered-By:
      - Express
      Access-Control-Allow-Origin:
      - "*"
      Etag:
      - W/"3e4-2RLXvr5wTg9YQ6aH95CkYoFNuO8"
      Via:
      - 1.1 vegur
      Cache-Control:
      - max-age=14400
      Cf-Cache-Status:
      - HIT
      Age:
      - '5757'
      Vary:
      - Accept-Encoding
      Server:
      - cloudflare
      Cf-Ray:
      - 866066bc988800af-GRU
    body:
      encoding: ASCII-8BIT
      string: '{"page":1,"per_page":6,"total":12,"total_pages":2,"data":[{"id":1,"email":"george.bluth@reqres.in","first_name":"George","last_name":"Bluth","avatar":"https://reqres.in/img/faces/1-image.jpg"},{"id":2,"email":"janet.weaver@reqres.in","first_name":"Janet","last_name":"Weaver","avatar":"https://reqres.in/img/faces/2-image.jpg"},{"id":3,"email":"emma.wong@reqres.in","first_name":"Emma","last_name":"Wong","avatar":"https://reqres.in/img/faces/3-image.jpg"},{"id":4,"email":"eve.holt@reqres.in","first_name":"Eve","last_name":"Holt","avatar":"https://reqres.in/img/faces/4-image.jpg"},{"id":5,"email":"charles.morris@reqres.in","first_name":"Charles","last_name":"Morris","avatar":"https://reqres.in/img/faces/5-image.jpg"},{"id":6,"email":"tracey.ramos@reqres.in","first_name":"Tracey","last_name":"Ramos","avatar":"https://reqres.in/img/faces/6-image.jpg"}],"support":{"url":"https://reqres.in/#support-heading","text":"To
        keep ReqRes free, contributions towards server costs are appreciated!"}}'
  recorded_at: Sun, 17 Mar 2024 22:25:52 GMT
- request:
    method: get
    uri: https://reqres.in/api/users/1?page=1&per_page=6
    body:
      encoding: US-ASCII
      string: ''
    headers:
      Accept-Encoding:
      - gzip;q=1.0,deflate;q=0.6,identity;q=0.3
      Accept:
      - "*/*"
      User-Agent:
      - Ruby
  response:
    status:
      code: 200
      message: OK
    headers:
      Date:
      - Sun, 17 Mar 2024 22:25:53 GMT
      Content-Type:
      - application/json; charset=utf-8
      Transfer-Encoding:
      - chunked
      Connection:
      - keep-alive
      Report-To:
      - '{"group":"heroku-nel","max_age":3600,"endpoints":[{"url":"https://nel.heroku.com/reports?ts=1710625826&sid=c4c9725f-1ab0-44d8-820f-430df2718e11&s=tzeHVDsDzqkMEdazOGYu%2B6u3g2PfhwdxUcagWtMxIeA%3D"}]}'
      Reporting-Endpoints:
      - heroku-nel=https://nel.heroku.com/reports?ts=1710625826&sid=c4c9725f-1ab0-44d8-820f-430df2718e11&s=tzeHVDsDzqkMEdazOGYu%2B6u3g2PfhwdxUcagWtMxIeA%3D
      Nel:
      - '{"report_to":"heroku-nel","max_age":3600,"success_fraction":0.005,"failure_fraction":0.05,"response_headers":["Via"]}'
      X-Powered-By:
      - Express
      Access-Control-Allow-Origin:
      - "*"
      Etag:
      - W/"118-P3iKcVpIgCj9HqYeOOrGLX8qJVc"
      Via:
      - 1.1 vegur
      Cache-Control:
      - max-age=14400
      Cf-Cache-Status:
      - REVALIDATED
      Vary:
      - Accept-Encoding
      Server:
      - cloudflare
      Cf-Ray:
      - 866066c39d9b1a8c-GRU
    body:
      encoding: ASCII-8BIT
      string: '{"data":{"id":1,"email":"george.bluth@reqres.in","first_name":"George","last_name":"Bluth","avatar":"https://reqres.in/img/faces/1-image.jpg"},"support":{"url":"https://reqres.in/#support-heading","text":"To
        keep ReqRes free, contributions towards server costs are appreciated!"}}'
  recorded_at: Sun, 17 Mar 2024 22:25:53 GMT
recorded_with: VCR 6.2.0
